5/jpg/001.jpg,11280/cd1491ca
5/jpg/002.jpg,11280/100436bd
5/jpg/007.jpg,11280/bd54b332
5/jpg/008.jpg,11280/e514fabe
5/jpg/009.jpg,11280/39c1bc58
5/jpg/009v.jpg,11280/b9932d6b
5/jpg/010.jpg,11280/b8953181
5/jpg/010v.jpg,11280/c9d7590b
5/jpg/011.jpg,11280/60c4f2af
5/jpg/011v.jpg,11280/408a5193
5/jpg/012.jpg,11280/73f28737
5/jpg/012v.jpg,11280/0bdba2e9
5/jpg/013.jpg,11280/78440a44
5/jpg/013v.jpg,11280/23d89478
5/jpg/014.jpg,11280/30df23a7
5/jpg/014v.jpg,11280/cf71385d
5/jpg/015.jpg,11280/6c768ffb
5/jpg/015v.jpg,11280/3277aa0b
5/jpg/016.jpg,11280/d5b2eb94
5/jpg/016v.jpg,11280/145c0a8c
5/jpg/017.jpg,11280/18528cfb
5/jpg/017v.jpg,11280/8b358c82
5/jpg/018.jpg,11280/63fc0e45
5/jpg/018v.jpg,11280/2c19baff
5/jpg/019.jpg,11280/1bef9d7c
5/jpg/019v.jpg,11280/11d838d4
5/jpg/020.jpg,11280/c62138ce
5/jpg/020v.jpg,11280/5fe1cd19
5/jpg/021.jpg,11280/fe8d9008
5/jpg/021v.jpg,11280/e7885e3e
5/jpg/022.jpg,11280/0f785285
5/jpg/022v.jpg,11280/183f9174
5/jpg/023.jpg,11280/83760cd0
5/jpg/023v.jpg,11280/e18e9e54
5/jpg/024.jpg,11280/3ab75af2
5/jpg/024v.jpg,11280/18afd942
5/jpg/025.jpg,11280/349ea881
5/jpg/025v.jpg,11280/f78f9151
5/jpg/026.jpg,11280/8106cca2
5/jpg/026v.jpg,11280/9c995dfb
5/jpg/027.jpg,11280/f228f4c6
5/jpg/027v.jpg,11280/0ee370ce
5/jpg/028.jpg,11280/8cf105e8
5/jpg/028v.jpg,11280/3de678a0
5/jpg/029.jpg,11280/a538e57a
5/jpg/029v.jpg,11280/6d79086b
5/jpg/030.jpg,11280/f981fc5c
5/jpg/030v.jpg,11280/76832c36
5/jpg/031.jpg,11280/9a29e611
5/jpg/031v.jpg,11280/4be6ab56
5/jpg/032.jpg,11280/e3b6aeea
5/jpg/032v.jpg,11280/f377a8b8
5/jpg/033.jpg,11280/82400cf7
5/jpg/033v.jpg,11280/8b3d5807
5/jpg/034.jpg,11280/1eb2fdb9
5/jpg/034v.jpg,11280/3ae113e0
5/jpg/035.jpg,11280/4002b6e6
5/jpg/035v.jpg,11280/f998a93e
5/jpg/036.jpg,11280/3956996f
5/jpg/036v.jpg,11280/9c27e9f8
5/jpg/037.jpg,11280/8de9e8ac
5/jpg/037v.jpg,11280/c7374a36
5/jpg/038.jpg,11280/d4a1a2c4
5/jpg/038v.jpg,11280/34a39778
5/jpg/039.jpg,11280/942407ff
5/jpg/039v.jpg,11280/c786be80
5/jpg/040.jpg,11280/2c21b89d
5/jpg/040v.jpg,11280/dd38407a
5/jpg/041.jpg,11280/639ed9b5
5/jpg/041v.jpg,11280/cfbb7503
5/jpg/042.jpg,11280/af4675d7
5/jpg/042v.jpg,11280/f7909b3c
5/jpg/043.jpg,11280/4cdcf319
5/jpg/043v.jpg,11280/60233a86
5/jpg/044.jpg,11280/6a5dee0e
5/jpg/044v.jpg,11280/709244ab
5/jpg/045.jpg,11280/3847a396
5/jpg/045v.jpg,11280/a1ed810b
5/jpg/046.jpg,11280/0071c225
5/jpg/046v.jpg,11280/6b4847bc
5/jpg/047.jpg,11280/7bb1288f
5/jpg/047v.jpg,11280/401fe821
5/jpg/048.jpg,11280/e679efb4
5/jpg/048v.jpg,11280/41f3fb7e
5/jpg/049.jpg,11280/30276cd9
5/jpg/049v.jpg,11280/6f0590f6
5/jpg/050.jpg,11280/ac6a4dc7
5/jpg/050v.jpg,11280/2f738dd4
5/jpg/051.jpg,11280/e9b5b05f
5/jpg/051v.jpg,11280/b505f8e6
5/jpg/052.jpg,11280/f157e615
5/jpg/052v.jpg,11280/8d80e1a6
5/jpg/053.jpg,11280/aa07b5c5
5/jpg/053v.jpg,11280/341e3b70
5/jpg/054.jpg,11280/b9bccc94
5/jpg/054v.jpg,11280/e68463a6
5/jpg/055.jpg,11280/c35e0632
5/jpg/055v.jpg,11280/b0bc4510
5/jpg/056.jpg,11280/20177b2a
5/jpg/056v.jpg,11280/5fb57734
5/jpg/057.jpg,11280/43e5e638
5/jpg/057v.jpg,11280/bd97100c
5/jpg/058.jpg,11280/6ce39a65
5/jpg/058v.jpg,11280/b888c437
5/jpg/059.jpg,11280/d5f6cb6a
5/jpg/059v.jpg,11280/00830da6
5/jpg/060.jpg,11280/5f4daf0f
5/jpg/060v.jpg,11280/1e5555ba
5/jpg/061.jpg,11280/3fb0051f
5/jpg/061v.jpg,11280/0df3619a
5/jpg/062.jpg,11280/2bfd80dc
5/jpg/062v.jpg,11280/a8056f4f
5/jpg/063.jpg,11280/de30897a
5/jpg/063v.jpg,11280/6737655c
5/jpg/064.jpg,11280/ffbd2101
5/jpg/064v.jpg,11280/8dabc169
5/jpg/065.jpg,11280/09b3088d
5/jpg/065v.jpg,11280/61cc5241
5/jpg/066.jpg,11280/d6006b41
5/jpg/066v.jpg,11280/3f88fad9
5/jpg/067.jpg,11280/826a682a
5/jpg/067v.jpg,11280/de728430
5/jpg/068.jpg,11280/71195007
5/jpg/068v.jpg,11280/6d67864d
5/jpg/069.jpg,11280/f0e1650c
5/jpg/069v.jpg,11280/f9497f03
5/jpg/070.jpg,11280/50a3ee3e
5/jpg/070v.jpg,11280/5a586960
5/jpg/071.jpg,11280/8dae9063
5/jpg/071v.jpg,11280/63b80b77
5/jpg/072.jpg,11280/40294806
5/jpg/072v.jpg,11280/ac2a56c6
5/jpg/073.jpg,11280/e2c031f5
5/jpg/073v.jpg,11280/9212208b
5/jpg/074.jpg,11280/eba805d0
5/jpg/074v.jpg,11280/4cb74ce6
5/jpg/075.jpg,11280/4e7b12a4
5/jpg/075v.jpg,11280/92af427d
5/jpg/076.jpg,11280/902b2254
5/jpg/076v.jpg,11280/cc6560f6
5/jpg/077.jpg,11280/1861c5ac
5/jpg/077bis.jpg,11280/77b139e9
5/jpg/078.jpg,11280/20b41511
5/jpg/079.jpg,11280/84327741
5/jpg/079v.jpg,11280/01c2c599
5/jpg/080.jpg,11280/fa38616d
5/jpg/080v.jpg,11280/100aece5
5/jpg/081.jpg,11280/9310e20b
5/jpg/081v.jpg,11280/4f39eae9
5/jpg/082.jpg,11280/d8832141
5/jpg/082v.jpg,11280/183c0c30
5/jpg/083.jpg,11280/e0a55068
5/jpg/083v.jpg,11280/7b61083b
5/jpg/084.jpg,11280/60907c8a
5/jpg/084v.jpg,11280/f483a390
5/jpg/085.jpg,11280/69994bf6
5/jpg/085v.jpg,11280/0e7aa6cb
5/jpg/086.jpg,11280/c66e9673
5/jpg/086v.jpg,11280/81483d5c
5/jpg/087.jpg,11280/455457ca
5/jpg/087v.jpg,11280/78ac865c
5/jpg/088.jpg,11280/36ecdbd8
5/jpg/088v.jpg,11280/b33db6ed
5/jpg/089.jpg,11280/88b12ebe
5/jpg/089v.jpg,11280/2a473df6
5/jpg/090.jpg,11280/e9a6ec40
5/jpg/090v.jpg,11280/52130f96
5/jpg/091.jpg,11280/d56bcc1d
5/jpg/091v.jpg,11280/5f698214
5/jpg/092.jpg,11280/378d66dc
5/jpg/092v.jpg,11280/b1a8370b
5/jpg/093.jpg,11280/d3dda7c5
5/jpg/093v.jpg,11280/8bfcdc75
5/jpg/094.jpg,11280/d2758e10
5/jpg/094v.jpg,11280/0aa64ed2
5/jpg/095.jpg,11280/4c8161e7
5/jpg/095v.jpg,11280/a33a3c4a
5/jpg/096.jpg,11280/645a6b6b
5/jpg/096v.jpg,11280/0f42da93
5/jpg/097.jpg,11280/630dee17
5/jpg/097v.jpg,11280/29201b15
5/jpg/098.jpg,11280/2a0cda10
5/jpg/098v.jpg,11280/5f219840
5/jpg/099.jpg,11280/07bc2071
5/jpg/099v.jpg,11280/0c649f99
5/jpg/100.jpg,11280/2cb43594
5/jpg/100v.jpg,11280/50e3022f
5/jpg/101.jpg,11280/d5774fcc
5/jpg/101v.jpg,11280/cd9b2f17
5/jpg/102.jpg,11280/ff0efd45
5/jpg/102v.jpg,11280/f8539fc5
5/jpg/103.jpg,11280/2aa99c42
5/jpg/103v.jpg,11280/2b89139c
5/jpg/104.jpg,11280/61374457
5/jpg/104v.jpg,11280/e97e27a1
5/jpg/105.jpg,11280/12ddd26a
5/jpg/105v.jpg,11280/92489801
5/jpg/106.jpg,11280/b196d3af
5/jpg/106v.jpg,11280/6b1fd4e0
5/jpg/107.jpg,11280/ffa29b88
5/jpg/107v.jpg,11280/c8f5618a
5/jpg/108.jpg,11280/73e10fa4
5/jpg/108v.jpg,11280/3b36ac4c
5/jpg/109.jpg,11280/173ec735
5/jpg/109v.jpg,11280/c477b7a7
5/jpg/110.jpg,11280/9b80aaa1
5/jpg/110v.jpg,11280/fca0885a
5/jpg/111.jpg,11280/3d2d7c9e
5/jpg/111v.jpg,11280/486a88b3
5/jpg/112.jpg,11280/0515b916
5/jpg/112v.jpg,11280/5e41b56f
5/jpg/113.jpg,11280/310585d5
5/jpg/113v.jpg,11280/def5296b
5/jpg/114.jpg,11280/58c1a84f
5/jpg/114v.jpg,11280/5e06e77f
5/jpg/115.jpg,11280/c5b85922
5/jpg/115v.jpg,11280/16dd9ab9
5/jpg/116.jpg,11280/a20b5f46
5/jpg/116v.jpg,11280/752ef216
5/jpg/117.jpg,11280/9dbafac3
5/jpg/117v.jpg,11280/7426a2a7
5/jpg/118.jpg,11280/f7927c84
5/jpg/118v.jpg,11280/f746ad6a
5/jpg/119.jpg,11280/540bde77
5/jpg/119v.jpg,11280/73203e6e
5/jpg/120.jpg,11280/ec206af3
5/jpg/120v.jpg,11280/046d19c2
5/jpg/121.jpg,11280/78603030
5/jpg/121v.jpg,11280/4afd8fb2
5/jpg/122.jpg,11280/a43121a7
5/jpg/122v.jpg,11280/878c57c6
5/jpg/123.jpg,11280/bb96c40f
5/jpg/123v.jpg,11280/7044a52d
5/jpg/124.jpg,11280/37b90958
5/jpg/124v.jpg,11280/b9a70df4
5/jpg/125.jpg,11280/3b5e569d
5/jpg/125v.jpg,11280/62e7e44f
5/jpg/126.jpg,11280/b764da73
5/jpg/126v.jpg,11280/6f6485b5
5/jpg/127.jpg,11280/00f97f45
5/jpg/127v.jpg,11280/58f84342
5/jpg/128.jpg,11280/b0e59e37
5/jpg/128v.jpg,11280/35454114
5/jpg/129.jpg,11280/984ace3e
5/jpg/129v.jpg,11280/9e7fb879
5/jpg/130.jpg,11280/702ab20d
5/jpg/130v.jpg,11280/2cbd9118
5/jpg/131.jpg,11280/7d0ab3b4
5/jpg/131v.jpg,11280/1f4ffc91
5/jpg/132.jpg,11280/0ed9d751
5/jpg/132v.jpg,11280/eec2ced5
5/jpg/133.jpg,11280/d71f200b
5/jpg/133v.jpg,11280/e58902e1
5/jpg/134.jpg,11280/2afab45a
5/jpg/134v.jpg,11280/aa06fc78
5/jpg/135.jpg,11280/8e9ee5c4
5/jpg/135v.jpg,11280/b51256fd
5/jpg/136.jpg,11280/5f23741f
5/jpg/136v.jpg,11280/6f9a6af0
5/jpg/137.jpg,11280/0b28b745
5/jpg/137v.jpg,11280/1ddc4510
5/jpg/138.jpg,11280/69549611
5/jpg/138v.jpg,11280/6cfb0388
5/jpg/139.jpg,11280/dfaf1916
5/jpg/139v.jpg,11280/b44e1d83
5/jpg/140.jpg,11280/e5534bd0
5/jpg/141.jpg,11280/64821f83
5/jpg/141v.jpg,11280/db9ce02e
5/jpg/142.jpg,11280/cd3e2bd4
5/jpg/142v.jpg,11280/504bf965
5/jpg/143.jpg,11280/9ed475a8
5/jpg/143v.jpg,11280/7894face
5/jpg/144.jpg,11280/f2b63b93
5/jpg/144v.jpg,11280/26d8b2aa
5/jpg/145.jpg,11280/6d3ca212
5/jpg/145v.jpg,11280/0999b8b7
5/jpg/146.jpg,11280/c15e9bea
5/jpg/147.jpg,11280/f11fcaea
5/jpg/147v.jpg,11280/d8eb91b1
5/jpg/148.jpg,11280/45d1c000
5/jpg/148v.jpg,11280/cf5f9866
5/jpg/149.jpg,11280/821e498f
5/jpg/149v.jpg,11280/38162c8e
5/jpg/150.jpg,11280/caa9166e
5/jpg/150v.jpg,11280/e0e85afb
5/jpg/151.jpg,11280/c12abefd
5/jpg/151v.jpg,11280/b0d18787
5/jpg/152.jpg,11280/f725d81b
5/jpg/152v.jpg,11280/918ac91a
5/jpg/153.jpg,11280/66d95a46
5/jpg/153v.jpg,11280/28447e85
5/jpg/154.jpg,11280/d4dbacde
5/jpg/154v.jpg,11280/0a91e235
5/jpg/155.jpg,11280/655a1c4f
5/jpg/155v.jpg,11280/d04d0489
5/jpg/156.jpg,11280/64433981
5/jpg/156v.jpg,11280/40258366
5/jpg/157.jpg,11280/8e37d8be
5/jpg/157v.jpg,11280/d82e6d51
5/jpg/158.jpg,11280/c5d23e0a
5/jpg/158v.jpg,11280/9781018f
5/jpg/159.jpg,11280/73feb725
5/jpg/159v.jpg,11280/f3c19a4b
5/jpg/160.jpg,11280/49299783
5/jpg/160v.jpg,11280/975d9d26
5/jpg/161.jpg,11280/8cfa6fbf
5/jpg/161v.jpg,11280/fb500478
5/jpg/162.jpg,11280/159e0e66
5/jpg/162v.jpg,11280/12d2dd40
5/jpg/163.jpg,11280/2aaf5321
5/jpg/163v.jpg,11280/1820107b
5/jpg/164.jpg,11280/db72d228
5/jpg/164v.jpg,11280/a97212d0
5/jpg/165.jpg,11280/05a26a76
5/jpg/165v.jpg,11280/d4396799
5/jpg/166.jpg,11280/234d5351
5/jpg/166v.jpg,11280/c3418c7d
5/jpg/167.jpg,11280/519ab9dc
5/jpg/167v.jpg,11280/4f32b434
5/jpg/168.jpg,11280/306a0681
5/jpg/168v.jpg,11280/23a9480d
5/jpg/169.jpg,11280/c06573e5
5/jpg/169v.jpg,11280/b427caff
5/jpg/170.jpg,11280/d68a521b
5/jpg/170v.jpg,11280/0a66e916
5/jpg/171.jpg,11280/2e695cba
5/jpg/171v.jpg,11280/f81db112
5/jpg/172.jpg,11280/85e837fe
5/jpg/172v.jpg,11280/5d9d6844
5/jpg/173.jpg,11280/559301c8
5/jpg/173v.jpg,11280/b9fcf727
5/jpg/174.jpg,11280/b09a91e4
5/jpg/174v.jpg,11280/ff3c591c
5/jpg/175.jpg,11280/87d85e32
5/jpg/175v.jpg,11280/006f19f7
5/jpg/176.jpg,11280/7d1a8d66
5/jpg/176v.jpg,11280/29b65860
5/jpg/177.jpg,11280/acd188e0
5/jpg/177v.jpg,11280/8f35de04
5/jpg/178.jpg,11280/3a34b98f
5/jpg/178v.jpg,11280/77e2316d
5/jpg/179.jpg,11280/234423b5
5/jpg/179v.jpg,11280/0d0f0c06
5/jpg/180.jpg,11280/efe3db06
5/jpg/180v.jpg,11280/5ffb8e6b
5/jpg/181.jpg,11280/875559fa
5/jpg/181v.jpg,11280/3ea3a5b0
5/jpg/182.jpg,11280/064c7745
5/jpg/182v.jpg,11280/8f4b1924
5/jpg/183.jpg,11280/b7527326
5/jpg/183v.jpg,11280/807e49ce
5/jpg/184.jpg,11280/0eeadff1
5/jpg/184v.jpg,11280/21de3af5
5/jpg/185.jpg,11280/ab510f67
5/jpg/185v.jpg,11280/e7ec2574
5/jpg/186.jpg,11280/e5260149
5/jpg/186v.jpg,11280/8eca8e85
5/jpg/187.jpg,11280/009bff5a
5/jpg/187v.jpg,11280/0ae57b12
5/jpg/188.jpg,11280/017cfc1e
5/jpg/188v.jpg,11280/f9caedc0
5/jpg/189.jpg,11280/a6fad612
5/jpg/189v.jpg,11280/186497d1
5/jpg/190.jpg,11280/6d765c47
5/jpg/190v.jpg,11280/bdd9eeaf
5/jpg/191.jpg,11280/5e40dd91
5/jpg/191v.jpg,11280/3f8e83d2
5/jpg/192.jpg,11280/e4a03657
5/jpg/192v.jpg,11280/8f97c730
5/jpg/193.jpg,11280/48b9c2ea
5/jpg/193v.jpg,11280/a6a4c366
5/jpg/194.jpg,11280/30e74148
5/jpg/194v.jpg,11280/023f1c67
5/jpg/195.jpg,11280/51fe5b56
5/jpg/195v.jpg,11280/c682634b
5/jpg/196.jpg,11280/bf1fb47f
5/jpg/196v.jpg,11280/d474912c
5/jpg/197.jpg,11280/285f4b0f
5/jpg/197v.jpg,11280/d1fafea3
5/jpg/198.jpg,11280/8199bbf6
5/jpg/198v.jpg,11280/be0dc774
5/jpg/199.jpg,11280/ebd805c9
5/jpg/199v.jpg,11280/08822032
5/jpg/200.jpg,11280/c142b6b0
5/jpg/200v.jpg,11280/c7797f61
5/jpg/201.jpg,11280/1586f247
5/jpg/201v.jpg,11280/9909de79
5/jpg/202.jpg,11280/5671d92f
5/jpg/202v.jpg,11280/5028a1ca
5/jpg/203.jpg,11280/cf8d57eb
5/jpg/203v.jpg,11280/824b1c77
5/jpg/204.jpg,11280/759d251b
5/jpg/204v.jpg,11280/9fc8d1fe
5/jpg/205.jpg,11280/bbef36c6
5/jpg/205v.jpg,11280/4d15622f
5/jpg/206.jpg,11280/ad712a0b
5/jpg/206v.jpg,11280/5d912f7a
5/jpg/207.jpg,11280/3913745a
5/jpg/207v.jpg,11280/ea818812
5/jpg/208.jpg,11280/1f7f339d
5/jpg/208v.jpg,11280/f73d909f
5/jpg/209.jpg,11280/15aead23
5/jpg/209v.jpg,11280/68bbfcdc
5/jpg/210.jpg,11280/53bf90f5
5/jpg/210v.jpg,11280/3baae736
5/jpg/211.jpg,11280/f89dd0ab
5/jpg/211v.jpg,11280/849cd19c
5/jpg/212.jpg,11280/bfa67fce
5/jpg/212v.jpg,11280/8b6abfd2
5/jpg/213.jpg,11280/bcf68da3
5/jpg/213v.jpg,11280/77154176
5/jpg/214.jpg,11280/f8bead4b
5/jpg/214v.jpg,11280/f8d40e65
5/jpg/215.jpg,11280/03dd79e0
5/jpg/215v.jpg,11280/e11193e7
5/jpg/216.jpg,11280/08ff4cd6
5/jpg/216v.jpg,11280/6e126687
5/jpg/217.jpg,11280/1bbadfd2
5/jpg/217v.jpg,11280/b805fc02
5/jpg/218.jpg,11280/27304efe
5/jpg/218v.jpg,11280/3db01100
5/jpg/219.jpg,11280/4770c1cb
5/jpg/219v.jpg,11280/f457d999
5/jpg/220.jpg,11280/25e6e526
5/jpg/220v.jpg,11280/cd0fbc9a
5/jpg/221.jpg,11280/2eca9a3a
5/jpg/221v.jpg,11280/01c96bce
5/jpg/222.jpg,11280/e308f736
5/jpg/222v.jpg,11280/298cd4f3
5/jpg/223.jpg,11280/28ab94eb
5/jpg/223v.jpg,11280/57f81829
5/jpg/224.jpg,11280/5c5f9db3
5/jpg/224v.jpg,11280/abf05ca7
5/jpg/225.jpg,11280/02225c1f
5/jpg/225v.jpg,11280/2239a95b
5/jpg/226.jpg,11280/2b04d9ef
5/jpg/226v.jpg,11280/fb3dd9e4
5/jpg/227.jpg,11280/0ffa84fb
5/jpg/227v.jpg,11280/13227700
5/jpg/228.jpg,11280/57384753
5/jpg/228v.jpg,11280/b377972c
5/jpg/229.jpg,11280/836b4acc
5/jpg/229v.jpg,11280/1fa38c98
5/jpg/230.jpg,11280/ef632486
5/jpg/230v.jpg,11280/c285bd84
5/jpg/231.jpg,11280/79338a87
5/jpg/231v.jpg,11280/82e36f7d
5/jpg/232.jpg,11280/67f556b3
5/jpg/232v.jpg,11280/2babdc9a
5/jpg/233.jpg,11280/f25e0cb1
5/jpg/233v.jpg,11280/109a6d3c
5/jpg/234.jpg,11280/a236292c
5/jpg/234v.jpg,11280/93bf1f2d
5/jpg/235.jpg,11280/2d918aec
5/jpg/235v.jpg,11280/b8610b15
5/jpg/236.jpg,11280/06b2172f
5/jpg/236v.jpg,11280/cfaa1488
5/jpg/237.jpg,11280/5200a5e8
5/jpg/237v.jpg,11280/5484c68b
5/jpg/238.jpg,11280/c81fcb61
5/jpg/238v.jpg,11280/91f23ff7
5/jpg/239.jpg,11280/6a364b72
5/jpg/239v.jpg,11280/1cacb22d
5/jpg/240.jpg,11280/84a4db90
5/jpg/240v.jpg,11280/3f56a87d
5/jpg/241.jpg,11280/1a965daa
5/jpg/241v.jpg,11280/b9b97701
5/jpg/242.jpg,11280/7ec50412
5/jpg/242v.jpg,11280/5d3d7c52
5/jpg/243.jpg,11280/43b4c75e
5/jpg/243v.jpg,11280/134ed5b0
5/jpg/244.jpg,11280/631520d6
5/jpg/244v.jpg,11280/a129748f
5/jpg/245.jpg,11280/fa7b37de
5/jpg/245v.jpg,11280/f7eb5d51
5/jpg/246.jpg,11280/7b78c00f
5/jpg/246v.jpg,11280/dba7d5f9
5/jpg/247.jpg,11280/e17442f3
5/jpg/247v.jpg,11280/b96c3c86
5/jpg/248.jpg,11280/52ccad0a
5/jpg/248v.jpg,11280/db9a4418
5/jpg/249.jpg,11280/cce4eda8
5/jpg/249v.jpg,11280/d31cb69f
5/jpg/250.jpg,11280/f35a6657
5/jpg/250v.jpg,11280/d1c77fd9
5/jpg/251.jpg,11280/c7df97fe
5/jpg/251v.jpg,11280/983ba1d3
5/jpg/252.jpg,11280/dbb94cdb
5/jpg/252v.jpg,11280/26a3e238
5/jpg/253.jpg,11280/d9687840
5/jpg/253v.jpg,11280/993316c8
5/jpg/254.jpg,11280/306770a1
5/jpg/254v.jpg,11280/4ba3d498
5/jpg/255.jpg,11280/5f34e59d
5/jpg/255v.jpg,11280/05981a08
5/jpg/256.jpg,11280/94c19a29
5/jpg/256v.jpg,11280/ff2ed98a
5/jpg/257.jpg,11280/4869aa1a
5/jpg/257v.jpg,11280/e19a8c35
5/jpg/258.jpg,11280/4a84cb31
5/jpg/258v.jpg,11280/9f24e5ed
5/jpg/259.jpg,11280/307dbce4
5/jpg/259v.jpg,11280/181f8bb2
5/jpg/260.jpg,11280/725d36c7
5/jpg/260v.jpg,11280/04016abc
5/jpg/261.jpg,11280/be091579
5/jpg/261v.jpg,11280/4ac12238
5/jpg/262.jpg,11280/7d900fe5
5/jpg/262v.jpg,11280/b0940281
5/jpg/263.jpg,11280/18dc4c1b
5/jpg/263v.jpg,11280/4c97de34
5/jpg/264.jpg,11280/19c04e16
5/jpg/264v.jpg,11280/632e5d91
5/jpg/265.jpg,11280/fb74a717
5/jpg/265v.jpg,11280/65c1265a
5/jpg/266.jpg,11280/b6f2043e
5/jpg/266v.jpg,11280/8e7bc8c0
5/jpg/267.jpg,11280/05552f5f
5/jpg/267v.jpg,11280/1db176f2
